
7
1: 2 3 0
2: 3 1 0
3: 1 2 4 5 0
4: 3 0
5: 3 0
6: 7 0
7: 6 0
--->
4
2 4 5 6     2 4 3 7     2 4 5 7     2 4   7
1 3 3 7     1 3 5 6     1 3   6     1 3   6   


2 4 7     
3 5 6


Juan y Masista1, Masista2, Masista3 son amigos
Ivan y Cesar son amigos

entonces
equipo A: Ivan Juan
equipo B: Cesar Masista1, Masista2, Masista3

7
2 3 0
3 1 0
1 2 4 5 0
3 0
3 0
7 0
6 0
      A:     B:    
1:    2      3             0
2:    1      3             0
3:  1 2 4    5             0
4:           3             0
5:           3             0
6:       7                 0
7:       6                 0

   1: 2: 3: 4: 5: 6: 7:          A:    B:
1: ┘  2  3  │  │  │  │ 0  1-nada
2: 1──┘  3  │  │  │  │ 0         2do   1
3: 1──2──┘  4  5  │  │ 0  3-nada  
4: ──────3──┘  │  │  │ 0         4to   3
5: ──────3─────┘  │  │ 0         5to   3
6: ───────────────┘  7 0  6-nada
7: ───────────────6──┘ 0         7mo   6


    1: 2: 3: 4: 5: 6: 7: 
A:  2  1 
B:  3  3

2 3 0
3 1 0
1 2 4 5 0
3 0
3 0
7 0
6 0
                    A      B
 1ro tomamos 2             1ro 
 2do No ya hay 2    2      
 3ro tomamos 4 y 5         3ro
 4to No ya hay 4    4
 5to No ya hay 5    5
 6to tomamos 7             6to
 7mo No ya hay 7    7   
============================================
7
1:2 3 0
2:3 1 0
3:1 2 4 5 0
4:3 0
5:3 0
6:7 0
7:6 0 

A: 7 5 4 2 
B: 6 3 1


A 1ro 3ro 3ro 6to
B 2   4   5   7

A 2 1   4 7 6
B 3     5

2 3 0
3 1 0
1 2 4 5 0
3 0
3 0
7 0
6 0

A  1 2 3   6
B  2 1 4 5 7


5
1: 4 5 6 0
2: 3 4 7 8 2 0
3: 3 4 5 6 0
4: 8 7 4 5 0
5: 1 0
-->
1 2 
4 3

Gueila,  Heidy y  Erika, son las esposas de Juanqui, Winder e Ivan respectivamente.
=====================

25
 1: 4 5 6 7 0
 2: 8 7 0
 3: 8 6 7 0
 4: 3 4 0
 5: 3 4 5 0
 6: 7 3 4 5 6 2 3 4 0
 7: 2 0
 8: 5 7 9 8 0
 9: 3 4 5 2 7 6 5 0
10: 6 3 4 5 0
11: 3 4 5 6 0
12: 4 5 6 3 0
13: 3 4 5 7 4 5 6 8 0
14: 4 0
15: 3 4 5 6 0
16: 8 5 6 4 0
17: 3 4 5 0
18: 3 4 5 7 0
19: 3 4 5 7 6 0
20: 5 4 6 3 4 6 0
21: 6 3 4 5 7 0
22: 3 4 7 6 9 0
23: 5 4 7 8 0
24: 9 5 6 7 8 4 5 3 2 3 2 1 4 5 7 0
25: 7 4 5 0
-->

7
1: 2 3 0
2: 3 1 0
3: 1 2 4 5 0
4: 3 0
5: 3 0
6: 7 0
7: 6 0

A 1ro 3ro 3ro 6to  A 2 4 3 7
B 2   4   5   7    B 1 3 5 6

7
2 3 0
3 1 0
1 2 4 5 0
3 0
3 0
7 0
6 0
A 1ro 3ro 3ro 6to
B 2   4   5   7


Case 1:
4
1: 3 0
2: 4 0
3: 1 0
4: 2 0
Ans:
2
1 2

A 1ro 2do  --> 1 2     A 1ro 2do --> 1 2
B 3   4                B 3   4


Case 2:
2
2 0
1 0
Ans:
1
1

A 1ro --> 1      A 1ro --> 1
B 2              B 2

Case 3:
3
2 3 0
1 3 0
1 2 0
Ans:
1
1

A 1ro --> 1    A 1ro --> 1 
B 2            B 2

Case 4:
3
2 0
1 3 0
2 0
Ans:
2
1 3

A 1ro 3ro
B 2   2

Case 5:
4
2 4 0
1 0
4 0
1 3 0
Ans:
2
1 3

A 1ro 3ro --> 1 3
B 2   4

Case 6:
5
5 0
5 0
5 0
5 0
1 2 3 4 0
Ans:
4
1 2 3 4

A 1ro 2do 3ro 4to --> 1 2 3 4
B 5   5   5   5

Case 7:
5
2 0
1 0
5 0
5 0
3 4 0
Ans:
3
1 3 4

A 1ro 3ro 4to --> 1 3 4
B 2   5   5














